{
  "plugins": ["node_modules/jsdoc-vuejs"],
  "source": {
    "include": ["components", "store", ".nuxt"],
    "exclude": ["node_modules"]
  },
  "templates": {
    "cleverLinks": false,
    "monospaceLinks": false
  }
}
