<svg xmlns="http://www.w3.org/2000/svg" xmlns:xlink="http://www.w3.org/1999/xlink" width="386" height="585" viewBox="0 0 386 585">
  <defs>
    <linearGradient id="linear-gradient" x1="0.5" y1="0.375" x2="0.5" y2="1" gradientUnits="objectBoundingBox">
      <stop offset="0" stop-color="#e0e0e0" stop-opacity="0.059"/>
      <stop offset="1" stop-color="#0a0a0a"/>
    </linearGradient>
    <filter id="Rectangle_111" x="0" y="0" width="386" height="585" filterUnits="userSpaceOnUse">
      <feOffset dy="3" input="SourceAlpha"/>
      <feGaussianBlur stdDeviation="3" result="blur"/>
      <feFlood flood-opacity="0.161"/>
      <feComposite operator="in" in2="blur"/>
      <feComposite in="SourceGraphic"/>
    </filter>
  </defs>
  <g transform="matrix(1, 0, 0, 1, 0, 0)" filter="url(#Rectangle_111)">
    <g id="Rectangle_111-2" data-name="Rectangle 111" transform="translate(9 6)" stroke="#707070" stroke-width="1" fill="url(#linear-gradient)">
      <rect width="368" height="567" rx="47" stroke="none"/>
      <rect x="0.5" y="0.5" width="367" height="566" rx="46.5" fill="none"/>
    </g>
  </g>
</svg>
