[
   {
      "model":"admin.logentry",
      "pk":1,
      "fields":{
         "action_time":"2023-12-27T00:28:41.401Z",
         "user":1,
         "content_type":10,
         "object_id":"1",
         "object_repr":"admin webMaster",
         "action_flag":1,
         "change_message":"[{\"added\": {}}]"
      }
   },
   {
      "model":"admin.logentry",
      "pk":2,
      "fields":{
         "action_time":"2023-12-27T00:29:49.031Z",
         "user":1,
         "content_type":18,
         "object_id":"1",
         "object_repr":"lancment du site Officiel des AE2ITA - 2023",
         "action_flag":1,
         "change_message":"[{\"added\": {}}]"
      }
   },
   {
      "model":"admin.logentry",
      "pk":3,
      "fields":{
         "action_time":"2023-12-27T00:49:06.374Z",
         "user":1,
         "content_type":10,
         "object_id":"1",
         "object_repr":"admin webMaster",
         "action_flag":2,
         "change_message":"[{\"changed\": {\"fields\": [\"Photo\"]}}]"
      }
   },
   {
      "model":"admin.logentry",
      "pk":4,
      "fields":{
         "action_time":"2023-12-27T00:52:47.993Z",
         "user":1,
         "content_type":10,
         "object_id":"1",
         "object_repr":"admin webMaster",
         "action_flag":2,
         "change_message":"[{\"changed\": {\"fields\": [\"Photo\"]}}]"
      }
   },
   {
      "model":"admin.logentry",
      "pk":5,
      "fields":{
         "action_time":"2023-12-27T00:54:40.516Z",
         "user":1,
         "content_type":10,
         "object_id":"1",
         "object_repr":"admin webMaster",
         "action_flag":2,
         "change_message":"[{\"changed\": {\"fields\": [\"Photo\"]}}]"
      }
   },
   {
      "model":"admin.logentry",
      "pk":6,
      "fields":{
         "action_time":"2023-12-27T02:16:35.470Z",
         "user":1,
         "content_type":18,
         "object_id":"2",
         "object_repr":"l'election du nouveau président pôle élèves inginieurs des ITA",
         "action_flag":1,
         "change_message":"[{\"added\": {}}]"
      }
   },
   {
      "model":"admin.logentry",
      "pk":7,
      "fields":{
         "action_time":"2023-12-28T00:40:29.240Z",
         "user":1,
         "content_type":35,
         "object_id":"1",
         "object_repr":"Tag object (1)",
         "action_flag":1,
         "change_message":"[{\"added\": {}}]"
      }
   },
   {
      "model":"admin.logentry",
      "pk":8,
      "fields":{
         "action_time":"2023-12-28T00:40:40.682Z",
         "user":1,
         "content_type":35,
         "object_id":"2",
         "object_repr":"Tag object (2)",
         "action_flag":1,
         "change_message":"[{\"added\": {}}]"
      }
   },
   {
      "model":"admin.logentry",
      "pk":9,
      "fields":{
         "action_time":"2023-12-28T00:40:59.362Z",
         "user":1,
         "content_type":35,
         "object_id":"3",
         "object_repr":"Tag object (3)",
         "action_flag":1,
         "change_message":"[{\"added\": {}}]"
      }
   },
   {
      "model":"admin.logentry",
      "pk":10,
      "fields":{
         "action_time":"2023-12-28T00:41:13.035Z",
         "user":1,
         "content_type":35,
         "object_id":"4",
         "object_repr":"Tag object (4)",
         "action_flag":1,
         "change_message":"[{\"added\": {}}]"
      }
   },
   {
      "model":"admin.logentry",
      "pk":11,
      "fields":{
         "action_time":"2023-12-28T00:43:20.463Z",
         "user":1,
         "content_type":36,
         "object_id":"1",
         "object_repr":"Evenement object (1)",
         "action_flag":1,
         "change_message":"[{\"added\": {}}]"
      }
   },
   {
      "model":"admin.logentry",
      "pk":12,
      "fields":{
         "action_time":"2023-12-28T04:06:22.087Z",
         "user":1,
         "content_type":36,
         "object_id":"1",
         "object_repr":"Evenement object (1)",
         "action_flag":2,
         "change_message":"[]"
      }
   },
   {
      "model":"admin.logentry",
      "pk":13,
      "fields":{
         "action_time":"2023-12-28T04:12:38.461Z",
         "user":1,
         "content_type":36,
         "object_id":"1",
         "object_repr":"Banana Technical Committee exchanges with expert 2023",
         "action_flag":2,
         "change_message":"[]"
      }
   },
   {
      "model":"admin.logentry",
      "pk":14,
      "fields":{
         "action_time":"2023-12-28T04:14:12.955Z",
         "user":1,
         "content_type":35,
         "object_id":"5",
         "object_repr":"conférence",
         "action_flag":1,
         "change_message":"[{\"added\": {}}]"
      }
   },
   {
      "model":"admin.logentry",
      "pk":15,
      "fields":{
         "action_time":"2023-12-28T04:14:26.577Z",
         "user":1,
         "content_type":36,
         "object_id":"2",
         "object_repr":"Annual Agriculture Symposium 2023",
         "action_flag":1,
         "change_message":"[{\"added\": {}}]"
      }
   },
   {
      "model":"admin.logentry",
      "pk":16,
      "fields":{
         "action_time":"2023-12-28T04:27:17.627Z",
         "user":1,
         "content_type":36,
         "object_id":"3",
         "object_repr":"International Symposium on Sustainable Agriculture 2023",
         "action_flag":1,
         "change_message":"[{\"added\": {}}]"
      }
   },
   {
      "model":"admin.logentry",
      "pk":17,
      "fields":{
         "action_time":"2023-12-28T04:28:58.373Z",
         "user":1,
         "content_type":36,
         "object_id":"1",
         "object_repr":"Banana Technical Committee exchanges with expert 2023",
         "action_flag":3,
         "change_message":""
      }
   },
   {
      "model":"admin.logentry",
      "pk":18,
      "fields":{
         "action_time":"2023-12-28T04:30:58.952Z",
         "user":1,
         "content_type":36,
         "object_id":"4",
         "object_repr":"Banana Technical Committee exchanges with expert 2023",
         "action_flag":1,
         "change_message":"[{\"added\": {}}]"
      }
   },
   {
      "model":"admin.logentry",
      "pk":19,
      "fields":{
         "action_time":"2023-12-28T14:02:20.626Z",
         "user":1,
         "content_type":20,
         "object_id":"1",
         "object_repr":"Témoignage de admin webMaster",
         "action_flag":1,
         "change_message":"[{\"added\": {}}]"
      }
   },
   {
      "model":"admin.logentry",
      "pk":20,
      "fields":{
         "action_time":"2023-12-28T14:04:10.775Z",
         "user":1,
         "content_type":20,
         "object_id":"2",
         "object_repr":"Témoignage de admin webMaster",
         "action_flag":1,
         "change_message":"[{\"added\": {}}]"
      }
   },
   {
      "model":"admin.logentry",
      "pk":21,
      "fields":{
         "action_time":"2023-12-28T14:04:42.509Z",
         "user":1,
         "content_type":20,
         "object_id":"3",
         "object_repr":"Témoignage de admin webMaster",
         "action_flag":1,
         "change_message":"[{\"added\": {}}]"
      }
   },
   {
      "model":"admin.logentry",
      "pk":22,
      "fields":{
         "action_time":"2023-12-28T14:06:11.047Z",
         "user":1,
         "content_type":20,
         "object_id":"4",
         "object_repr":"Témoignage de admin webMaster",
         "action_flag":1,
         "change_message":"[{\"added\": {}}]"
      }
   },
   {
      "model":"admin.logentry",
      "pk":23,
      "fields":{
         "action_time":"2023-12-28T22:56:18.610Z",
         "user":1,
         "content_type":21,
         "object_id":"1",
         "object_repr":"COMPTE RENDU DE REUNION DU BUREAU EXECUTIF DE L’AE2ITA",
         "action_flag":1,
         "change_message":"[{\"added\": {}}]"
      }
   },
   {
      "model":"admin.logentry",
      "pk":24,
      "fields":{
         "action_time":"2023-12-29T01:45:52.338Z",
         "user":1,
         "content_type":20,
         "object_id":"5",
         "object_repr":"Témoignage de admin webMaster",
         "action_flag":1,
         "change_message":"[{\"added\": {}}]"
      }
   },
   {
      "model":"admin.logentry",
      "pk":25,
      "fields":{
         "action_time":"2023-12-29T02:34:37.630Z",
         "user":1,
         "content_type":4,
         "object_id":"2",
         "object_repr":"master",
         "action_flag":1,
         "change_message":"[{\"added\": {}}]"
      }
   },
   {
      "model":"admin.logentry",
      "pk":26,
      "fields":{
         "action_time":"2023-12-29T02:40:03.214Z",
         "user":1,
         "content_type":10,
         "object_id":"2",
         "object_repr":"leponge bob",
         "action_flag":1,
         "change_message":"[{\"added\": {}}]"
      }
   },
   {
      "model":"admin.logentry",
      "pk":27,
      "fields":{
         "action_time":"2023-12-29T02:41:06.709Z",
         "user":1,
         "content_type":4,
         "object_id":"3",
         "object_repr":"redacteur",
         "action_flag":1,
         "change_message":"[{\"added\": {}}]"
      }
   },
   {
      "model":"admin.logentry",
      "pk":28,
      "fields":{
         "action_time":"2023-12-29T02:44:43.407Z",
         "user":1,
         "content_type":10,
         "object_id":"3",
         "object_repr":"sephora canon",
         "action_flag":1,
         "change_message":"[{\"added\": {}}]"
      }
   },
   {
      "model":"admin.logentry",
      "pk":29,
      "fields":{
         "action_time":"2023-12-29T02:46:50.056Z",
         "user":1,
         "content_type":10,
         "object_id":"3",
         "object_repr":"sephora canon",
         "action_flag":2,
         "change_message":"[{\"changed\": {\"fields\": [\"Photo\", \"Sexe\"]}}]"
      }
   },
   {
      "model":"admin.logentry",
      "pk":30,
      "fields":{
         "action_time":"2023-12-29T03:35:20.442Z",
         "user":1,
         "content_type":4,
         "object_id":"4",
         "object_repr":"formateur",
         "action_flag":1,
         "change_message":"[{\"added\": {}}]"
      }
   },
   {
      "model":"admin.logentry",
      "pk":31,
      "fields":{
         "action_time":"2023-12-29T03:37:59.549Z",
         "user":1,
         "content_type":10,
         "object_id":"4",
         "object_repr":"Bousko Elysée",
         "action_flag":1,
         "change_message":"[{\"added\": {}}]"
      }
   },
   {
      "model":"auth.permission",
      "pk":1,
      "fields":{
         "name":"Can add log entry",
         "content_type":1,
         "codename":"add_logentry"
      }
   },
   {
      "model":"auth.permission",
      "pk":2,
      "fields":{
         "name":"Can change log entry",
         "content_type":1,
         "codename":"change_logentry"
      }
   },
   {
      "model":"auth.permission",
      "pk":3,
      "fields":{
         "name":"Can delete log entry",
         "content_type":1,
         "codename":"delete_logentry"
      }
   },
   {
      "model":"auth.permission",
      "pk":4,
      "fields":{
         "name":"Can view log entry",
         "content_type":1,
         "codename":"view_logentry"
      }
   },
   {
      "model":"auth.permission",
      "pk":5,
      "fields":{
         "name":"Can add permission",
         "content_type":2,
         "codename":"add_permission"
      }
   },
   {
      "model":"auth.permission",
      "pk":6,
      "fields":{
         "name":"Can change permission",
         "content_type":2,
         "codename":"change_permission"
      }
   },
   {
      "model":"auth.permission",
      "pk":7,
      "fields":{
         "name":"Can delete permission",
         "content_type":2,
         "codename":"delete_permission"
      }
   },
   {
      "model":"auth.permission",
      "pk":8,
      "fields":{
         "name":"Can view permission",
         "content_type":2,
         "codename":"view_permission"
      }
   },
   {
      "model":"auth.permission",
      "pk":9,
      "fields":{
         "name":"Can add group",
         "content_type":3,
         "codename":"add_group"
      }
   },
   {
      "model":"auth.permission",
      "pk":10,
      "fields":{
         "name":"Can change group",
         "content_type":3,
         "codename":"change_group"
      }
   },
   {
      "model":"auth.permission",
      "pk":11,
      "fields":{
         "name":"Can delete group",
         "content_type":3,
         "codename":"delete_group"
      }
   },
   {
      "model":"auth.permission",
      "pk":12,
      "fields":{
         "name":"Can view group",
         "content_type":3,
         "codename":"view_group"
      }
   },
   {
      "model":"auth.permission",
      "pk":13,
      "fields":{
         "name":"Can add user",
         "content_type":4,
         "codename":"add_user"
      }
   },
   {
      "model":"auth.permission",
      "pk":14,
      "fields":{
         "name":"Can change user",
         "content_type":4,
         "codename":"change_user"
      }
   },
   {
      "model":"auth.permission",
      "pk":15,
      "fields":{
         "name":"Can delete user",
         "content_type":4,
         "codename":"delete_user"
      }
   },
   {
      "model":"auth.permission",
      "pk":16,
      "fields":{
         "name":"Can view user",
         "content_type":4,
         "codename":"view_user"
      }
   },
   {
      "model":"auth.permission",
      "pk":17,
      "fields":{
         "name":"Can add content type",
         "content_type":5,
         "codename":"add_contenttype"
      }
   },
   {
      "model":"auth.permission",
      "pk":18,
      "fields":{
         "name":"Can change content type",
         "content_type":5,
         "codename":"change_contenttype"
      }
   },
   {
      "model":"auth.permission",
      "pk":19,
      "fields":{
         "name":"Can delete content type",
         "content_type":5,
         "codename":"delete_contenttype"
      }
   },
   {
      "model":"auth.permission",
      "pk":20,
      "fields":{
         "name":"Can view content type",
         "content_type":5,
         "codename":"view_contenttype"
      }
   },
   {
      "model":"auth.permission",
      "pk":21,
      "fields":{
         "name":"Can add session",
         "content_type":6,
         "codename":"add_session"
      }
   },
   {
      "model":"auth.permission",
      "pk":22,
      "fields":{
         "name":"Can change session",
         "content_type":6,
         "codename":"change_session"
      }
   },
   {
      "model":"auth.permission",
      "pk":23,
      "fields":{
         "name":"Can delete session",
         "content_type":6,
         "codename":"delete_session"
      }
   },
   {
      "model":"auth.permission",
      "pk":24,
      "fields":{
         "name":"Can view session",
         "content_type":6,
         "codename":"view_session"
      }
   },
   {
      "model":"auth.permission",
      "pk":25,
      "fields":{
         "name":"Can add task result",
         "content_type":7,
         "codename":"add_taskresult"
      }
   },
   {
      "model":"auth.permission",
      "pk":26,
      "fields":{
         "name":"Can change task result",
         "content_type":7,
         "codename":"change_taskresult"
      }
   },
   {
      "model":"auth.permission",
      "pk":27,
      "fields":{
         "name":"Can delete task result",
         "content_type":7,
         "codename":"delete_taskresult"
      }
   },
   {
      "model":"auth.permission",
      "pk":28,
      "fields":{
         "name":"Can view task result",
         "content_type":7,
         "codename":"view_taskresult"
      }
   },
   {
      "model":"auth.permission",
      "pk":29,
      "fields":{
         "name":"Can add chord counter",
         "content_type":8,
         "codename":"add_chordcounter"
      }
   },
   {
      "model":"auth.permission",
      "pk":30,
      "fields":{
         "name":"Can change chord counter",
         "content_type":8,
         "codename":"change_chordcounter"
      }
   },
   {
      "model":"auth.permission",
      "pk":31,
      "fields":{
         "name":"Can delete chord counter",
         "content_type":8,
         "codename":"delete_chordcounter"
      }
   },
   {
      "model":"auth.permission",
      "pk":32,
      "fields":{
         "name":"Can view chord counter",
         "content_type":8,
         "codename":"view_chordcounter"
      }
   },
   {
      "model":"auth.permission",
      "pk":33,
      "fields":{
         "name":"Can add group result",
         "content_type":9,
         "codename":"add_groupresult"
      }
   },
   {
      "model":"auth.permission",
      "pk":34,
      "fields":{
         "name":"Can change group result",
         "content_type":9,
         "codename":"change_groupresult"
      }
   },
   {
      "model":"auth.permission",
      "pk":35,
      "fields":{
         "name":"Can delete group result",
         "content_type":9,
         "codename":"delete_groupresult"
      }
   },
   {
      "model":"auth.permission",
      "pk":36,
      "fields":{
         "name":"Can view group result",
         "content_type":9,
         "codename":"view_groupresult"
      }
   },
   {
      "model":"auth.permission",
      "pk":37,
      "fields":{
         "name":"Can add membre",
         "content_type":10,
         "codename":"add_membre"
      }
   },
   {
      "model":"auth.permission",
      "pk":38,
      "fields":{
         "name":"Can change membre",
         "content_type":10,
         "codename":"change_membre"
      }
   },
   {
      "model":"auth.permission",
      "pk":39,
      "fields":{
         "name":"Can delete membre",
         "content_type":10,
         "codename":"delete_membre"
      }
   },
   {
      "model":"auth.permission",
      "pk":40,
      "fields":{
         "name":"Can view membre",
         "content_type":10,
         "codename":"view_membre"
      }
   },
   {
      "model":"auth.permission",
      "pk":41,
      "fields":{
         "name":"Can add publication aine",
         "content_type":11,
         "codename":"add_publicationaine"
      }
   },
   {
      "model":"auth.permission",
      "pk":42,
      "fields":{
         "name":"Can change publication aine",
         "content_type":11,
         "codename":"change_publicationaine"
      }
   },
   {
      "model":"auth.permission",
      "pk":43,
      "fields":{
         "name":"Can delete publication aine",
         "content_type":11,
         "codename":"delete_publicationaine"
      }
   },
   {
      "model":"auth.permission",
      "pk":44,
      "fields":{
         "name":"Can view publication aine",
         "content_type":11,
         "codename":"view_publicationaine"
      }
   },
   {
      "model":"auth.permission",
      "pk":45,
      "fields":{
         "name":"Can add parcours",
         "content_type":12,
         "codename":"add_parcours"
      }
   },
   {
      "model":"auth.permission",
      "pk":46,
      "fields":{
         "name":"Can change parcours",
         "content_type":12,
         "codename":"change_parcours"
      }
   },
   {
      "model":"auth.permission",
      "pk":47,
      "fields":{
         "name":"Can delete parcours",
         "content_type":12,
         "codename":"delete_parcours"
      }
   },
   {
      "model":"auth.permission",
      "pk":48,
      "fields":{
         "name":"Can view parcours",
         "content_type":12,
         "codename":"view_parcours"
      }
   },
   {
      "model":"auth.permission",
      "pk":49,
      "fields":{
         "name":"Can add document personnel",
         "content_type":13,
         "codename":"add_documentpersonnel"
      }
   },
   {
      "model":"auth.permission",
      "pk":50,
      "fields":{
         "name":"Can change document personnel",
         "content_type":13,
         "codename":"change_documentpersonnel"
      }
   },
   {
      "model":"auth.permission",
      "pk":51,
      "fields":{
         "name":"Can delete document personnel",
         "content_type":13,
         "codename":"delete_documentpersonnel"
      }
   },
   {
      "model":"auth.permission",
      "pk":52,
      "fields":{
         "name":"Can view document personnel",
         "content_type":13,
         "codename":"view_documentpersonnel"
      }
   },
   {
      "model":"auth.permission",
      "pk":53,
      "fields":{
         "name":"Can add promotion",
         "content_type":14,
         "codename":"add_promotion"
      }
   },
   {
      "model":"auth.permission",
      "pk":54,
      "fields":{
         "name":"Can change promotion",
         "content_type":14,
         "codename":"change_promotion"
      }
   },
   {
      "model":"auth.permission",
      "pk":55,
      "fields":{
         "name":"Can delete promotion",
         "content_type":14,
         "codename":"delete_promotion"
      }
   },
   {
      "model":"auth.permission",
      "pk":56,
      "fields":{
         "name":"Can view promotion",
         "content_type":14,
         "codename":"view_promotion"
      }
   },
   {
      "model":"auth.permission",
      "pk":57,
      "fields":{
         "name":"Can add membre bureau",
         "content_type":15,
         "codename":"add_membrebureau"
      }
   },
   {
      "model":"auth.permission",
      "pk":58,
      "fields":{
         "name":"Can change membre bureau",
         "content_type":15,
         "codename":"change_membrebureau"
      }
   },
   {
      "model":"auth.permission",
      "pk":59,
      "fields":{
         "name":"Can delete membre bureau",
         "content_type":15,
         "codename":"delete_membrebureau"
      }
   },
   {
      "model":"auth.permission",
      "pk":60,
      "fields":{
         "name":"Can view membre bureau",
         "content_type":15,
         "codename":"view_membrebureau"
      }
   },
   {
      "model":"auth.permission",
      "pk":61,
      "fields":{
         "name":"Can add confirmation email",
         "content_type":16,
         "codename":"add_confirmationemail"
      }
   },
   {
      "model":"auth.permission",
      "pk":62,
      "fields":{
         "name":"Can change confirmation email",
         "content_type":16,
         "codename":"change_confirmationemail"
      }
   },
   {
      "model":"auth.permission",
      "pk":63,
      "fields":{
         "name":"Can delete confirmation email",
         "content_type":16,
         "codename":"delete_confirmationemail"
      }
   },
   {
      "model":"auth.permission",
      "pk":64,
      "fields":{
         "name":"Can view confirmation email",
         "content_type":16,
         "codename":"view_confirmationemail"
      }
   },
   {
      "model":"auth.permission",
      "pk":65,
      "fields":{
         "name":"Can add entreprise",
         "content_type":17,
         "codename":"add_entreprise"
      }
   },
   {
      "model":"auth.permission",
      "pk":66,
      "fields":{
         "name":"Can change entreprise",
         "content_type":17,
         "codename":"change_entreprise"
      }
   },
   {
      "model":"auth.permission",
      "pk":67,
      "fields":{
         "name":"Can delete entreprise",
         "content_type":17,
         "codename":"delete_entreprise"
      }
   },
   {
      "model":"auth.permission",
      "pk":68,
      "fields":{
         "name":"Can view entreprise",
         "content_type":17,
         "codename":"view_entreprise"
      }
   },
   {
      "model":"auth.permission",
      "pk":69,
      "fields":{
         "name":"Can add article",
         "content_type":18,
         "codename":"add_article"
      }
   },
   {
      "model":"auth.permission",
      "pk":70,
      "fields":{
         "name":"Can change article",
         "content_type":18,
         "codename":"change_article"
      }
   },
   {
      "model":"auth.permission",
      "pk":71,
      "fields":{
         "name":"Can delete article",
         "content_type":18,
         "codename":"delete_article"
      }
   },
   {
      "model":"auth.permission",
      "pk":72,
      "fields":{
         "name":"Can view article",
         "content_type":18,
         "codename":"view_article"
      }
   },
   {
      "model":"auth.permission",
      "pk":73,
      "fields":{
         "name":"Can add blog image",
         "content_type":19,
         "codename":"add_blogimage"
      }
   },
   {
      "model":"auth.permission",
      "pk":74,
      "fields":{
         "name":"Can change blog image",
         "content_type":19,
         "codename":"change_blogimage"
      }
   },
   {
      "model":"auth.permission",
      "pk":75,
      "fields":{
         "name":"Can delete blog image",
         "content_type":19,
         "codename":"delete_blogimage"
      }
   },
   {
      "model":"auth.permission",
      "pk":76,
      "fields":{
         "name":"Can view blog image",
         "content_type":19,
         "codename":"view_blogimage"
      }
   },
   {
      "model":"auth.permission",
      "pk":77,
      "fields":{
         "name":"Can add temoignage",
         "content_type":20,
         "codename":"add_temoignage"
      }
   },
   {
      "model":"auth.permission",
      "pk":78,
      "fields":{
         "name":"Can change temoignage",
         "content_type":20,
         "codename":"change_temoignage"
      }
   },
   {
      "model":"auth.permission",
      "pk":79,
      "fields":{
         "name":"Can delete temoignage",
         "content_type":20,
         "codename":"delete_temoignage"
      }
   },
   {
      "model":"auth.permission",
      "pk":80,
      "fields":{
         "name":"Can view temoignage",
         "content_type":20,
         "codename":"view_temoignage"
      }
   },
   {
      "model":"auth.permission",
      "pk":81,
      "fields":{
         "name":"Can add publication bureau",
         "content_type":21,
         "codename":"add_publicationbureau"
      }
   },
   {
      "model":"auth.permission",
      "pk":82,
      "fields":{
         "name":"Can change publication bureau",
         "content_type":21,
         "codename":"change_publicationbureau"
      }
   },
   {
      "model":"auth.permission",
      "pk":83,
      "fields":{
         "name":"Can delete publication bureau",
         "content_type":21,
         "codename":"delete_publicationbureau"
      }
   },
   {
      "model":"auth.permission",
      "pk":84,
      "fields":{
         "name":"Can view publication bureau",
         "content_type":21,
         "codename":"view_publicationbureau"
      }
   },
   {
      "model":"auth.permission",
      "pk":85,
      "fields":{
         "name":"Can add formation",
         "content_type":22,
         "codename":"add_formation"
      }
   },
   {
      "model":"auth.permission",
      "pk":86,
      "fields":{
         "name":"Can change formation",
         "content_type":22,
         "codename":"change_formation"
      }
   },
   {
      "model":"auth.permission",
      "pk":87,
      "fields":{
         "name":"Can delete formation",
         "content_type":22,
         "codename":"delete_formation"
      }
   },
   {
      "model":"auth.permission",
      "pk":88,
      "fields":{
         "name":"Can view formation",
         "content_type":22,
         "codename":"view_formation"
      }
   },
   {
      "model":"auth.permission",
      "pk":89,
      "fields":{
         "name":"Can add support cours",
         "content_type":23,
         "codename":"add_supportcours"
      }
   },
   {
      "model":"auth.permission",
      "pk":90,
      "fields":{
         "name":"Can change support cours",
         "content_type":23,
         "codename":"change_supportcours"
      }
   },
   {
      "model":"auth.permission",
      "pk":91,
      "fields":{
         "name":"Can delete support cours",
         "content_type":23,
         "codename":"delete_supportcours"
      }
   },
   {
      "model":"auth.permission",
      "pk":92,
      "fields":{
         "name":"Can view support cours",
         "content_type":23,
         "codename":"view_supportcours"
      }
   },
   {
      "model":"auth.permission",
      "pk":93,
      "fields":{
         "name":"Can add lien ressource",
         "content_type":24,
         "codename":"add_lienressource"
      }
   },
   {
      "model":"auth.permission",
      "pk":94,
      "fields":{
         "name":"Can change lien ressource",
         "content_type":24,
         "codename":"change_lienressource"
      }
   },
   {
      "model":"auth.permission",
      "pk":95,
      "fields":{
         "name":"Can delete lien ressource",
         "content_type":24,
         "codename":"delete_lienressource"
      }
   },
   {
      "model":"auth.permission",
      "pk":96,
      "fields":{
         "name":"Can view lien ressource",
         "content_type":24,
         "codename":"view_lienressource"
      }
   },
   {
      "model":"auth.permission",
      "pk":97,
      "fields":{
         "name":"Can add inscription formation",
         "content_type":25,
         "codename":"add_inscriptionformation"
      }
   },
   {
      "model":"auth.permission",
      "pk":98,
      "fields":{
         "name":"Can change inscription formation",
         "content_type":25,
         "codename":"change_inscriptionformation"
      }
   },
   {
      "model":"auth.permission",
      "pk":99,
      "fields":{
         "name":"Can delete inscription formation",
         "content_type":25,
         "codename":"delete_inscriptionformation"
      }
   },
   {
      "model":"auth.permission",
      "pk":100,
      "fields":{
         "name":"Can view inscription formation",
         "content_type":25,
         "codename":"view_inscriptionformation"
      }
   },
   {
      "model":"auth.permission",
      "pk":101,
      "fields":{
         "name":"Can add formation video",
         "content_type":26,
         "codename":"add_formationvideo"
      }
   },
   {
      "model":"auth.permission",
      "pk":102,
      "fields":{
         "name":"Can change formation video",
         "content_type":26,
         "codename":"change_formationvideo"
      }
   },
   {
      "model":"auth.permission",
      "pk":103,
      "fields":{
         "name":"Can delete formation video",
         "content_type":26,
         "codename":"delete_formationvideo"
      }
   },
   {
      "model":"auth.permission",
      "pk":104,
      "fields":{
         "name":"Can view formation video",
         "content_type":26,
         "codename":"view_formationvideo"
      }
   },
   {
      "model":"auth.permission",
      "pk":105,
      "fields":{
         "name":"Can add formation image",
         "content_type":27,
         "codename":"add_formationimage"
      }
   },
   {
      "model":"auth.permission",
      "pk":106,
      "fields":{
         "name":"Can change formation image",
         "content_type":27,
         "codename":"change_formationimage"
      }
   },
   {
      "model":"auth.permission",
      "pk":107,
      "fields":{
         "name":"Can delete formation image",
         "content_type":27,
         "codename":"delete_formationimage"
      }
   },
   {
      "model":"auth.permission",
      "pk":108,
      "fields":{
         "name":"Can view formation image",
         "content_type":27,
         "codename":"view_formationimage"
      }
   },
   {
      "model":"auth.permission",
      "pk":109,
      "fields":{
         "name":"Can add formateur",
         "content_type":28,
         "codename":"add_formateur"
      }
   },
   {
      "model":"auth.permission",
      "pk":110,
      "fields":{
         "name":"Can change formateur",
         "content_type":28,
         "codename":"change_formateur"
      }
   },
   {
      "model":"auth.permission",
      "pk":111,
      "fields":{
         "name":"Can delete formateur",
         "content_type":28,
         "codename":"delete_formateur"
      }
   },
   {
      "model":"auth.permission",
      "pk":112,
      "fields":{
         "name":"Can view formateur",
         "content_type":28,
         "codename":"view_formateur"
      }
   },
   {
      "model":"auth.permission",
      "pk":113,
      "fields":{
         "name":"Can add album",
         "content_type":29,
         "codename":"add_album"
      }
   },
   {
      "model":"auth.permission",
      "pk":114,
      "fields":{
         "name":"Can change album",
         "content_type":29,
         "codename":"change_album"
      }
   },
   {
      "model":"auth.permission",
      "pk":115,
      "fields":{
         "name":"Can delete album",
         "content_type":29,
         "codename":"delete_album"
      }
   },
   {
      "model":"auth.permission",
      "pk":116,
      "fields":{
         "name":"Can view album",
         "content_type":29,
         "codename":"view_album"
      }
   },
   {
      "model":"auth.permission",
      "pk":117,
      "fields":{
         "name":"Can add album video",
         "content_type":30,
         "codename":"add_albumvideo"
      }
   },
   {
      "model":"auth.permission",
      "pk":118,
      "fields":{
         "name":"Can change album video",
         "content_type":30,
         "codename":"change_albumvideo"
      }
   },
   {
      "model":"auth.permission",
      "pk":119,
      "fields":{
         "name":"Can delete album video",
         "content_type":30,
         "codename":"delete_albumvideo"
      }
   },
   {
      "model":"auth.permission",
      "pk":120,
      "fields":{
         "name":"Can view album video",
         "content_type":30,
         "codename":"view_albumvideo"
      }
   },
   {
      "model":"auth.permission",
      "pk":121,
      "fields":{
         "name":"Can add album image",
         "content_type":31,
         "codename":"add_albumimage"
      }
   },
   {
      "model":"auth.permission",
      "pk":122,
      "fields":{
         "name":"Can change album image",
         "content_type":31,
         "codename":"change_albumimage"
      }
   },
   {
      "model":"auth.permission",
      "pk":123,
      "fields":{
         "name":"Can delete album image",
         "content_type":31,
         "codename":"delete_albumimage"
      }
   },
   {
      "model":"auth.permission",
      "pk":124,
      "fields":{
         "name":"Can view album image",
         "content_type":31,
         "codename":"view_albumimage"
      }
   },
   {
      "model":"auth.permission",
      "pk":125,
      "fields":{
         "name":"Can add document",
         "content_type":32,
         "codename":"add_document"
      }
   },
   {
      "model":"auth.permission",
      "pk":126,
      "fields":{
         "name":"Can change document",
         "content_type":32,
         "codename":"change_document"
      }
   },
   {
      "model":"auth.permission",
      "pk":127,
      "fields":{
         "name":"Can delete document",
         "content_type":32,
         "codename":"delete_document"
      }
   },
   {
      "model":"auth.permission",
      "pk":128,
      "fields":{
         "name":"Can view document",
         "content_type":32,
         "codename":"view_document"
      }
   },
   {
      "model":"auth.permission",
      "pk":129,
      "fields":{
         "name":"Can add offre emploi",
         "content_type":33,
         "codename":"add_offreemploi"
      }
   },
   {
      "model":"auth.permission",
      "pk":130,
      "fields":{
         "name":"Can change offre emploi",
         "content_type":33,
         "codename":"change_offreemploi"
      }
   },
   {
      "model":"auth.permission",
      "pk":131,
      "fields":{
         "name":"Can delete offre emploi",
         "content_type":33,
         "codename":"delete_offreemploi"
      }
   },
   {
      "model":"auth.permission",
      "pk":132,
      "fields":{
         "name":"Can view offre emploi",
         "content_type":33,
         "codename":"view_offreemploi"
      }
   },
   {
      "model":"auth.permission",
      "pk":133,
      "fields":{
         "name":"Can add candidature",
         "content_type":34,
         "codename":"add_candidature"
      }
   },
   {
      "model":"auth.permission",
      "pk":134,
      "fields":{
         "name":"Can change candidature",
         "content_type":34,
         "codename":"change_candidature"
      }
   },
   {
      "model":"auth.permission",
      "pk":135,
      "fields":{
         "name":"Can delete candidature",
         "content_type":34,
         "codename":"delete_candidature"
      }
   },
   {
      "model":"auth.permission",
      "pk":136,
      "fields":{
         "name":"Can view candidature",
         "content_type":34,
         "codename":"view_candidature"
      }
   },
   {
      "model":"auth.permission",
      "pk":137,
      "fields":{
         "name":"Can add tag",
         "content_type":35,
         "codename":"add_tag"
      }
   },
   {
      "model":"auth.permission",
      "pk":138,
      "fields":{
         "name":"Can change tag",
         "content_type":35,
         "codename":"change_tag"
      }
   },
   {
      "model":"auth.permission",
      "pk":139,
      "fields":{
         "name":"Can delete tag",
         "content_type":35,
         "codename":"delete_tag"
      }
   },
   {
      "model":"auth.permission",
      "pk":140,
      "fields":{
         "name":"Can view tag",
         "content_type":35,
         "codename":"view_tag"
      }
   },
   {
      "model":"auth.permission",
      "pk":141,
      "fields":{
         "name":"Can add evenement",
         "content_type":36,
         "codename":"add_evenement"
      }
   },
   {
      "model":"auth.permission",
      "pk":142,
      "fields":{
         "name":"Can change evenement",
         "content_type":36,
         "codename":"change_evenement"
      }
   },
   {
      "model":"auth.permission",
      "pk":143,
      "fields":{
         "name":"Can delete evenement",
         "content_type":36,
         "codename":"delete_evenement"
      }
   },
   {
      "model":"auth.permission",
      "pk":144,
      "fields":{
         "name":"Can view evenement",
         "content_type":36,
         "codename":"view_evenement"
      }
   },
   {
      "model":"auth.permission",
      "pk":145,
      "fields":{
         "name":"Can add expert",
         "content_type":37,
         "codename":"add_expert"
      }
   },
   {
      "model":"auth.permission",
      "pk":146,
      "fields":{
         "name":"Can change expert",
         "content_type":37,
         "codename":"change_expert"
      }
   },
   {
      "model":"auth.permission",
      "pk":147,
      "fields":{
         "name":"Can delete expert",
         "content_type":37,
         "codename":"delete_expert"
      }
   },
   {
      "model":"auth.permission",
      "pk":148,
      "fields":{
         "name":"Can view expert",
         "content_type":37,
         "codename":"view_expert"
      }
   },
   {
      "model":"auth.permission",
      "pk":149,
      "fields":{
         "name":"Can add expert comment",
         "content_type":38,
         "codename":"add_expertcomment"
      }
   },
   {
      "model":"auth.permission",
      "pk":150,
      "fields":{
         "name":"Can change expert comment",
         "content_type":38,
         "codename":"change_expertcomment"
      }
   },
   {
      "model":"auth.permission",
      "pk":151,
      "fields":{
         "name":"Can delete expert comment",
         "content_type":38,
         "codename":"delete_expertcomment"
      }
   },
   {
      "model":"auth.permission",
      "pk":152,
      "fields":{
         "name":"Can view expert comment",
         "content_type":38,
         "codename":"view_expertcomment"
      }
   },
   {
      "model":"auth.user",
      "pk":1,
      "fields":{
         "password":"pbkdf2_sha256$260000$AOHZvFqYTSybe1RUqoyb4r$ZQAXSvBXIyJQjn3cwH9fZsqmTiI6Z6tLQA9QNZskdII=",
         "last_login":"2023-12-29T01:44:47.784Z",
         "is_superuser":true,
         "username":"admin",
         "first_name":"",
         "last_name":"",
         "email":"",
         "is_staff":true,
         "is_active":true,
         "date_joined":"2023-12-24T04:37:47.275Z",
         "groups":[

         ],
         "user_permissions":[

         ]
      }
   },
   {
      "model":"auth.user",
      "pk":2,
      "fields":{
         "password":"pbkdf2_sha256$260000$8zaZTYgYAkxd5evGOqyhVJ$hbd/DsFyEiVNGhV6FsfN/V3ychALphdKF3kEZ7zIfwo=",
         "last_login":null,
         "is_superuser":false,
         "username":"master",
         "first_name":"",
         "last_name":"",
         "email":"",
         "is_staff":false,
         "is_active":true,
         "date_joined":"2023-12-29T02:34:37.419Z",
         "groups":[

         ],
         "user_permissions":[

         ]
      }
   },
   {
      "model":"auth.user",
      "pk":3,
      "fields":{
         "password":"pbkdf2_sha256$260000$G8mXSzDV0jiSeNqh5wUKN1$pknktk9uuVv8/vfpr76pjSzonyNhWYuA14pl9rH3EIQ=",
         "last_login":null,
         "is_superuser":false,
         "username":"redacteur",
         "first_name":"",
         "last_name":"",
         "email":"",
         "is_staff":false,
         "is_active":true,
         "date_joined":"2023-12-29T02:41:06.499Z",
         "groups":[

         ],
         "user_permissions":[

         ]
      }
   },
   {
      "model":"auth.user",
      "pk":4,
      "fields":{
         "password":"pbkdf2_sha256$260000$lp6j85l65onOwbMpcQvHgk$RsnlFj1NB+L4tt01TpyTHyRktZ5MXNOoOQM19Bp3ZHQ=",
         "last_login":null,
         "is_superuser":false,
         "username":"formateur",
         "first_name":"",
         "last_name":"",
         "email":"",
         "is_staff":false,
         "is_active":true,
         "date_joined":"2023-12-29T03:35:20.230Z",
         "groups":[

         ],
         "user_permissions":[

         ]
      }
   },

   {
      "model":"members.membre",
      "pk":1,
      "fields":{
         "user":1,
         "nom":"admin",
         "prenoms":"webMaster",
         "photo":"membres/photo_qQfJwHVm.png",
         "date_naissance":null,
         "lieu_naissance":null,
         "contact1":"0759188395",
         "contact2":null,
         "contact3":null,
         "status_emploi":"",
         "fonction_emploi":"",
         "region_activites":"",
         "email1":"admin@ae2ita.com",
         "email2":null,
         "nationalite":"",
         "matricule":"",
         "niveau":"",
         "specialite":"",
         "bibliographie":"",
         "date_creation":"2023-12-27T00:28:41.396Z",
         "date_modification":"2023-12-27T00:54:40.508Z",
         "date_derniere_connexion":null,
         "slug":"admin-webmaster-47",
         "is_email_confirmed":true,
         "is_active":true,
         "sexe":"M",
         "password":null,
         "entrepreneur":false,
         "entreprise":null,
         "pays_residence":null,
         "ville_residence":null,
         "promotion":47,
         "ecole_origine":null
      }
   },
   {
      "model":"members.membre",
      "pk":2,
      "fields":{
         "user":2,
         "nom":"leponge",
         "prenoms":"bob",
         "photo":"membres/photo_WZjeKwPV.jpg",
         "date_naissance":"2023-12-29",
         "lieu_naissance":null,
         "contact1":"07070707",
         "contact2":null,
         "contact3":null,
         "status_emploi":"sans emplois",
         "fonction_emploi":"",
         "region_activites":"",
         "email1":"test@email.test",
         "email2":null,
         "nationalite":"",
         "matricule":"",
         "niveau":"",
         "specialite":"",
         "bibliographie":"",
         "date_creation":"2023-12-29T02:40:03.208Z",
         "date_modification":"2023-12-29T02:40:03.208Z",
         "date_derniere_connexion":"2023-12-29T02:39:12Z",
         "slug":"leponge-bob-2",
         "is_email_confirmed":true,
         "is_active":true,
         "sexe":"M",
         "password":null,
         "entrepreneur":true,
         "entreprise":null,
         "pays_residence":null,
         "ville_residence":null,
         "promotion":2,
         "ecole_origine":null
      }
   },
   {
      "model":"members.membre",
      "pk":3,
      "fields":{
         "user":3,
         "nom":"sephora",
         "prenoms":"canon",
         "photo":"membres/photo_nvggPBbU.jpg",
         "date_naissance":"2023-12-29",
         "lieu_naissance":null,
         "contact1":"07070707",
         "contact2":null,
         "contact3":null,
         "status_emploi":"",
         "fonction_emploi":"",
         "region_activites":"",
         "email1":"test@email.ci",
         "email2":null,
         "nationalite":"",
         "matricule":"",
         "niveau":"",
         "specialite":"",
         "bibliographie":"",
         "date_creation":"2023-12-29T02:44:43.401Z",
         "date_modification":"2023-12-29T02:46:50.051Z",
         "date_derniere_connexion":"2023-12-29T02:43:47Z",
         "slug":"sephora-canon-33",
         "is_email_confirmed":true,
         "is_active":true,
         "sexe":"F",
         "password":null,
         "entrepreneur":false,
         "entreprise":null,
         "pays_residence":null,
         "ville_residence":null,
         "promotion":33,
         "ecole_origine":null
      }
   },
   {
      "model":"members.membre",
      "pk":4,
      "fields":{
         "user":4,
         "nom":"Bousko",
         "prenoms":"Elysée",
         "photo":"membres/photo_XDhJApGh.jpg",
         "date_naissance":"2002-12-29",
         "lieu_naissance":null,
         "contact1":"07070707",
         "contact2":null,
         "contact3":null,
         "status_emploi":"",
         "fonction_emploi":"",
         "region_activites":"",
         "email1":"test@email.ci",
         "email2":null,
         "nationalite":"",
         "matricule":"",
         "niveau":"",
         "specialite":"",
         "bibliographie":"",
         "date_creation":"2023-12-29T03:37:59.544Z",
         "date_modification":"2023-12-29T03:37:59.544Z",
         "date_derniere_connexion":"2023-12-29T03:37:43Z",
         "slug":"bousko-elysee-47",
         "is_email_confirmed":true,
         "is_active":true,
         "sexe":"M",
         "password":null,
         "entrepreneur":true,
         "entreprise":null,
         "pays_residence":null,
         "ville_residence":null,
         "promotion":47,
         "ecole_origine":null
      }
   },
   {
      "model":"blogs.article",
      "pk":1,
      "fields":{
         "titre":"lancment du site Officiel des AE2ITA - 2023",
         "description":"<p>Lorem ipsum dolor sit amet, consectetur adipisicing elit. Atque aut culpa doloribus ex fuga fugiat minima nesciunt odit quasi. Consectetur earum enim itaque modi porro quasi quis, reprehenderit. Exercitationem, laudantium?</p>",
         "cover":"covers/lancment-du-site-officiel-des-ae2ita-2023-2023.webp",
         "slug":"lancment-du-site-officiel-des-ae2ita-2023",
         "auteur":1,
         "type":"article",
         "tags":"plateforme,site, officiel, ae2ita",
         "date_creation":"2023-12-27T00:29:49.030Z"
      }
   },
   {
      "model":"blogs.article",
      "pk":2,
      "fields":{
         "titre":"l'election du nouveau président pôle élèves inginieurs des ITA",
         "description":"Lorem ipsum dolor sit amet, consectetur adipisicing elit. A accusantium alias aspernatur assumenda aut culpa, eius error, hic inventore iste mollitia natus, nesciunt odit quibusdam recusandae unde vel voluptatum! Accusantium assumenda aut autem blanditiis delectus dolorem doloribus dolorum ducimus error esse est explicabo impedit inventore ipsa itaque iure labore, mollitia nam nemo nihil nostrum odit placeat quaerat quasi quia quo recusandae reprehenderit similique sint suscipit veniam vero voluptas voluptatibus. Consectetur consequuntur deserunt dicta fugiat inventore minus molestiae reiciendis rerum sint.",
         "cover":"covers/lelection-du-nouveau-president-pole-eleves-inginieurs-des-ita-2023.jpg",
         "slug":"lelection-du-nouveau-president-pole-eleves-inginie",
         "auteur":1,
         "type":"article",
         "tags":null,
         "date_creation":"2023-12-27T02:16:35.469Z"
      }
   },
   {
      "model":"blogs.temoignage",
      "pk":1,
      "fields":{
         "membre":1,
         "contenu":"Lorem ipsum dolor sit amet, consectetur adipisicing elit. Delectus eaque enim eos et exercitationem illum, laudantium maiores molestiae mollitia officiis, quaerat repudiandae? Adipisci alias aspernatur at beatae deleniti ipsa nostrum quasi tempore! Dolor dolore doloremque dolorum, eveniet fugit modi nostrum ratione rerum, sapiente tempore totam ut veniam? Perspiciatis, sit, vel?",
         "date_creation":"2023-12-28T14:01:03Z",
         "active":true
      }
   },
   {
      "model":"blogs.temoignage",
      "pk":2,
      "fields":{
         "membre":1,
         "contenu":"Lorem ipsum dolor sit amet, consectetur adipisicing elit. Adipisci, aliquam architecto consequuntur cumque deserunt dolorem enim excepturi, hic illum incidunt maxime minima natus nesciunt nulla optio pariatur possimus quaerat quos vel vitae? Assumenda earum enim ex facilis mollitia nisi rem repudiandae sed sequi ut veritatis vero, voluptas? Nihil quos sapiente tempora vero voluptates? Ab blanditiis delectus deleniti error ipsam officia quibusdam repellendus voluptates! Amet animi corporis ducimus iste laboriosam, laudantium libero nulla porro possimus voluptatem! Eius est explicabo facere iure mollitia nihil obcaecati placeat, quam recusandae soluta, suscipit, voluptatum! Accusantium delectus doloremque nam neque quas quo reprehenderit, sint tempore voluptatibus.",
         "date_creation":"2023-12-28T14:02:20Z",
         "active":true
      }
   },
   {
      "model":"blogs.temoignage",
      "pk":3,
      "fields":{
         "membre":1,
         "contenu":"Lorem ipsum dolor sit amet, consectetur adipisicing elit. Atque consequatur dolor dolorum eum fuga, fugit illo ipsa maxime minima nostrum officiis quidem repellendus repudiandae saepe sint voluptatem voluptatibus? Assumenda doloremque libero nisi voluptates! Accusamus aliquid at blanditiis cum earum expedita placeat praesentium similique? Accusantium ad adipisci aliquam at consectetur consequuntur culpa cum cumque cupiditate deleniti dolores, ea eaque enim ex facere fugiat, hic incidunt ipsam iure labore laboriosam laudantium minus, molestiae nam nostrum reiciendis tempora temporibus ullam vitae voluptates voluptatum?",
         "date_creation":"2023-12-28T14:04:21Z",
         "active":true
      }
   },
   {
      "model":"blogs.temoignage",
      "pk":4,
      "fields":{
         "membre":1,
         "contenu":"Lorem ipsum dolor sit amet, consectetur adipisicing elit. Atque consequatur dolor dolorum eum fuga, fugit illo ipsa maxim oluptates! Accusamus aliquid at blanditiis cum earum expedita placeat praesentium similique? Accusantium ad adipisci aliquam at consectetur consequuntur culpa cum cumque cupiditate deleniti dolores, ea eaque enim ex facere fugiat, hic incidunt ipsam iure labore laboriosam laudantium minus, molestiae nam nostrum reiciendis tempora temporibus ullam vitae voluptates voluptatum?",
         "date_creation":"2023-12-28T14:05:57Z",
         "active":true
      }
   },
   {
      "model":"blogs.temoignage",
      "pk":5,
      "fields":{
         "membre":1,
         "contenu":"Lorem ipsum dolor sit amet, consectetur adipisicing elit. Assumenda at corporis, deserunt hic impedit iusto nulla obcaecati perferendis quo sapiente similique voluptatum? Ad, architecto, incidunt.\r\n  Lorem ipsum dolor sit amet, consectetur adipisicing elit. Assumenda at corporis, deserunt hic impedit iusto nulla obcaecati perferendis quo sapiente similique voluptatum? Ad, architecto, incidunt.",
         "date_creation":"2023-12-29T01:45:10Z",
         "active":true
      }
   },
   {
      "model":"blogs.expert",
      "pk":1,
      "fields":{
         "date_creation":"2023-12-31T01:05:48.667Z",
         "date_modification":"2023-12-31T01:05:48.667Z",
         "theme":"Agriculture en Afrique",
         "nom":"Prof. Kwame Osei",
         "contenu":"Le Prof. Kwame Osei, un éminent expert en économie agricole, partagera son expertise sur l'impact économique de l'agriculture en Afrique. Dans sa présentation, le Prof. Osei examinera les tendances actuelles, les opportunités d'investissement dans le secteur agricole, et les politiques nécessaires pour stimuler le développement rural. En mettant l'accent sur l'agriculture comme moteur de croissance économique, le Prof. Osei fournira des perspectives uniques sur la manière dont le secteur agricole peut contribuer à la prospérité économique et à la réduction de la pauvreté en Afrique.",
         "photo":"",
         "active":true,
         "promotion":"47",
         "uuid":"9f3f43be-1e62-4646-9500-901416299b89"
      }
   },
   {
      "model":"blogs.expert",
      "pk":2,
      "fields":{
         "date_creation":"2023-12-31T01:08:02.471Z",
         "date_modification":"2023-12-31T01:08:02.471Z",
         "theme":"Durabilité agricole en Afrique",
         "nom":"Dr. Fatoumata Traoré",
         "contenu":"Le Dr. Fatoumata Traoré, une pionnière de la durabilité agricole en Afrique, nous guidera à travers les pratiques agricoles innovantes visant à assurer un équilibre entre la productivité, la protection de l'environnement et le bien-être des communautés. Au cours de sa présentation, le Dr. Traoré explorera des thèmes tels que l'agroécologie, les énergies renouvelables dans l'agriculture, et les initiatives locales réussies de développement durable. Venez découvrir comment des approches durables peuvent non seulement améliorer les rendements agricoles mais aussi promouvoir la résilience des systèmes agricoles face aux défis climatiques actuels.",
         "photo":"",
         "active":true,
         "promotion":"47",
         "uuid":"7c17d413-8fe5-4fb8-871e-a6eac9cad986"
      }
   },
   {
      "model":"blogs.expert",
      "pk":3,
      "fields":{
         "date_creation":"2023-12-31T01:08:56.982Z",
         "date_modification":"2023-12-31T01:08:56.982Z",
         "theme":"Innovation Technologique en Agriculture Africaine",
         "nom":"Dr. Chukwudi Nwachukwu",
         "contenu":"Le Dr. Chukwudi Nwachukwu, un expert en technologie agricole, nous plongera dans le monde des innovations qui transforment l'agriculture en Afrique. Au cours de sa présentation, le Dr. Nwachukwu discutera de l'impact des nouvelles technologies telles que l'Internet des objets (IoT), l'intelligence artificielle, et les applications mobiles sur l'efficacité agricole. Venez découvrir comment ces avancées révolutionnent les pratiques agricoles, améliorent la gestion des exploitations et contribuent à une agriculture plus intelligente et durable sur le continent africain.",
         "photo":"",
         "active":true,
         "promotion":"47",
         "uuid":"54f728e4-9bf0-40f6-b456-c49cabcbd1e8"
      }
   },
   {
      "model":"blogs.expert",
      "pk":4,
      "fields":{
         "date_creation":"2023-12-31T01:09:07.486Z",
         "date_modification":"2023-12-31T01:09:07.486Z",
         "theme":"Innovation Technologique en Agriculture Africaine",
         "nom":"Dr. Chukwudi Nwachukwu",
         "contenu":"Le Dr. Chukwudi Nwachukwu, un expert en technologie agricole, nous plongera dans le monde des innovations qui transforment l'agriculture en Afrique. Au cours de sa présentation, le Dr. Nwachukwu discutera de l'impact des nouvelles technologies telles que l'Internet des objets (IoT), l'intelligence artificielle, et les applications mobiles sur l'efficacité agricole. Venez découvrir comment ces avancées révolutionnent les pratiques agricoles, améliorent la gestion des exploitations et contribuent à une agriculture plus intelligente et durable sur le continent africain.",
         "photo":"",
         "active":true,
         "promotion":"47",
         "uuid":"44bbc278-0a0f-4b18-9a7b-8dc0635d2df1"
      }
   },
   {
      "model":"blogs.publicationbureau",
      "pk":1,
      "fields":{
         "slug":"compte-rendu-de-reunion-du-bureau-executif-de-lae2",
         "titre":"COMPTE RENDU DE REUNION DU BUREAU EXECUTIF DE L’AE2ITA",
         "description":"Lorem ipsum dolor sit amet, consectetur adipisicing elit. Ab atque officia quis reiciendis ut voluptates. Eos iure odit pariatur perspiciatis.",
         "contenu":"COMPTE RENDU DE REUNION DU BUREAU EXECUTIF DE L’AE2ITA\r\n(LE 04 JUILLET 2023)\r\nLieu : Google meet\r\nOrdre du jour :\r\n1- Informations\r\n2- Etat d’avancement des activités programmées lors de la dernière réunion\r\n3- Divers\r\nPrésents\r\n- Monsieur KOUAME N’DA VALLERY, Président\r\n- Monsieur N’GORAN YAO FULGENCE, 2E Vice- Président\r\n- Madame N’GUESSAN PATRICIA, Secrétaire Générale\r\n- Monsieur KOUASSI KOFFI KAN MERIC SYLVANE, Secrétaire Générale\r\nAdjoint\r\n- Madame AMANI CLARISSE, Trésorière Générale\r\n- Madame BAMBA MADOUSSOU NOURA, Trésorière Adjointe\r\nAbsents\r\n- Monsieur YAPI MONEY HERVE, 1ER Vice-Président (Excusé)\r\nPrésident de séance : Monsieur KOUAME N’DA VALLERY, président de l’amicale\r\nSecrétaire de séance : Monsieur KOUASSI KOFFI KAN MERIC SYLVANE,\r\nSecrétaire Générale Adjoint\r\nOuverture de la séance : 20h4 min\r\nLa séance a été ouverte par le président, qui a remercié tous les participants pour leur\r\nprésence à cette réunion en ligne. Il a ensuite fait part de l’ordre du jour qui a été adopté par les\r\nautres membre du bureau sans modification.\r\nI. INFORMATIONS\r\nLes informations ont porté sur les points suivants :\r\n➢ Cas de décès\r\nLe président a abordé le cas de décès de Monsieur ALPHONSE WOI MESSE, « père » des\r\nITA. Relativement aux obsèques, il indiqué l’achat de 24 pagnes par le BE afin de garantir une\r\ndisponibilité pour les demandeurs. Le pagne étant confectionné après commande cette\r\ndisposition a été prise parce que les délais de commande étaient déjà arrivés. Cependant cela\r\nreste un préfinancement et la trésorerie sera remise en place avec l’argent payé par les\r\ndemandeurs.\r\nLe président a rappelé les dispositions de nos statuts et règlement intérieurs relativement aux\r\ncas d’évènements sociaux. Avec le dépôt de nos statuts et règlement intérieur (RI), les\r\ndispositions de l’article 10 du RI devront être bien expliquées et appliquées. Ainsi les cas\r\nd’évènements prévus feront l’objet de cotisation de 2000 F obligatoires pour les membres actifs.\r\nLes autres cas feront l’objet d’information sur la plateforme avec levée d’une cotisation\r\nvolontaire comme c’est le cas jusqu’à présent.\r\nA la suite du président, des réactions ont été enregistrées.\r\nLa secrétaire générale, madame N’GUESSAN PATRICIA a proposé la création d’une cellule\r\nsociale (caisse social) pour les cas de décès et autres problèmes urgents pour laquelle des\r\ncotisations ne seraient levées que pour les membres de l’amicale à jour de leurs cotisations\r\nPrenant la parole, la trésorière générale informé le BE sur l’état des cotisations des personnes\r\ntouchées par les derniers évènements sociaux.\r\nAprès ces interventions et reprenant la parole, le président a rappelé l’existence des statuts et\r\nrèglement intérieur qui règlent déjà la question des cotisations. Les cotisations statutaires sont\r\n1obligatoires pour les membres actifs et les montants sont prédéfinis. Tout autre cas fait objet\r\nd’information et de cotisation volontaire. (adhésion, annuelle, exceptionnelle).\r\nIl a terminé ses propos sur ce point en disant que les statuts et règlement seront publiés avec\r\nune vidéo à l’appui de ce CR pour une meilleure compréhension.\r\n➢ Etat d’avancement pour la légalisation de notre amicale l’AE2ITA\r\nSe prononçant sur ce point le président a informé l’ensemble du bureau avoir récupéré les statuts\r\net réglement intérieur avec monsieur TRAORE FARABAN (P20) président de séance lors de\r\nl’AG élective.\r\nDes démarches ont été déjà entreprises et le dépôt définitif se fera le Mercredi 12 juillet 2023\r\naprès quelques diligences en cours.\r\nII.\r\nETAT D’AVANCEMENT DES ACTIVITES PROGRAMMEES\r\n❖ Groupement des entrepreneurs ITA\r\nAprès la première réunion, la suite des démarches reste suspendue à la proposition de certains\r\ndocuments fondateurs par le Président. Le délai de 15 jours prévu pour la réunion suivante et\r\nles propositions n’a pu être respecté parce qu’un rendez-vous prévu avec le Directeur de l’ESA\r\nn’a pu encore avoir lieu.\r\nLe président entend donc rencontrer le Directeur de l’ESA, Docteur KONE Siaka\r\nincessamment. Ce serait aussi l’occasion de discuter des modalités de partenariat entre l’ESA\r\net les entrepreneurs ITA dans le cadre de la participation au SARA 2023.\r\n❖ Le forum des stages\r\nAfin de mieux préparer et réussir cette activité, le forum aura lieu à la rentrée prochaine. Les\r\néleves doivent rencontrer l’administration de l’ESA pour avoir une caution pour cette activité.\r\nIl leur a été conseillé de faire des propositions à l’ESA qui seront soutenues par les ingénieurs.\r\n❖ Formations\r\nLe président a rassuré l’ensemble du bureau que les formations ont débuté pour les ingénieurs\r\net même les élèves ingénieurs. Il a indiqué que 4 amicalistes sont en formation avec lui\r\nprésentement à Dabou. Il a aussi eu une formation en hévéaculture avec les élèves ingénieurs\r\nle 26 juin 2023. La formation théorique en salle a été suivie d’une phase pratique le jour suivant\r\n27 juin 2023. Une formation sur les produits phytosanitaires est en préparation. C’est ici le lieu\r\nd’appeler tous ceux qui veulent animer une formation à prendre contact avec le BE.\r\n❖ Programme de visites (anciens et cas sociaux)\r\nL’expression de la reconnaissance des ITA aux anciens, décidée par le bureau exécutif se fera\r\navec l’implication des délégués régionaux en lien avec des membres du BE. La prochaine\r\nréunion élargie aux délégués régionaux permettra de poursuivre le recensement de façon\r\ndécentralisée. La programmation des visites sera donc faite après ce recensement.\r\nPour les cas de décès enregistrés et pour lesquels des cotisations ont déjà été levées :\r\n• Obsèques du père du 1er vice-président, M. Yapi Money\r\nUne délégation conduite par le Président sera à Afféry les 07 et 08 juillet 2023 pour les obsèques\r\navant une visite à Dabou pour la remise de notre contribution financière.\r\n• Décès de la mère de M. Hien, époux de notre Secrétaire Générale\r\n2Une délégation conduite par le Président sera à Yamoussoukro entre le 12 et le 15 juillet 2023\r\nen fonction de la disponibilité de M. Hien pour la remise de notre contribution financière.\r\n❖ Plateforme élargie aux responsables de région et première\r\nreunion élargie\r\nUne reunion est prévue le 06 juillet avec les délégués de régions pour leur opérationnalisation\r\net un recensement plus rapide et efficace des ainés de la P1 a la P10.\r\nIII. DIVERS\r\nNous avons été informés des travaux en cours sur la création de nouveaux canaux d’information\r\net de promotion des ITA (site web, Instagram, etc.).\r\nPlus rien ne restant à débattre, c’est sur des mots de remerciement et de satisfactions de chaque\r\nmembre du bureau que la réunion a pris fin.\r\nFin de réunion : 22H00min\r\nLe Président\r\nKouamé N’da Valéry\r\nLe rapporteur\r\nKouassi Meric",
         "commisson":"Bureau Exécutif",
         "ordre":"CR 0005/BE/07-2023",
         "fichier":"publications/compte-rendu-de-reunion-du-bureau-executif-de-lae2ita-cr-0005be07-2023.pdf",
         "signature":"Kouamé N’da Valéry",
         "auteur_id":1,
         "date_creation":"2023-12-28T22:56:18.553Z",
         "date_modification":"2023-12-28T22:56:18.553Z"
      }
   },
   {
      "model":"blogs.evenement",
      "pk":2,
      "fields":{
         "date_creation":"2023-12-28T04:14:26.479Z",
         "date_modification":"2023-12-28T04:14:26.479Z",
         "titre":"Annual Agriculture Symposium",
         "lieu":"Abidjan",
         "type":"Conference",
         "format":"présentiel",
         "debut":"2023-12-28T04:13:34Z",
         "fin":"2023-12-30T04:13:58Z",
         "slug":"annual-agriculture-symposium2023",
         "tags":[
            3,
            5
         ]
      }
   },
   {
      "model":"blogs.evenement",
      "pk":3,
      "fields":{
         "date_creation":"2023-12-28T04:27:17.621Z",
         "date_modification":"2023-12-28T04:27:17.621Z",
         "titre":"International Symposium on Sustainable Agriculture",
         "lieu":"google Meet",
         "type":"Formation",
         "format":"présentiel",
         "debut":"2024-01-02T04:26:54Z",
         "fin":"2024-01-04T04:27:01Z",
         "slug":"international-symposium-on-sustainable-agriculture",
         "tags":[
            2,
            5
         ]
      }
   },
   {
      "model":"blogs.evenement",
      "pk":4,
      "fields":{
         "date_creation":"2023-12-28T04:30:58.944Z",
         "date_modification":"2023-12-28T04:30:58.944Z",
         "titre":"Banana Technical Committee exchanges with expert",
         "lieu":"Yamousskro,  Gloria",
         "type":"Formation",
         "format":"présentiel",
         "debut":"2024-01-16T04:29:49Z",
         "fin":"2024-01-18T04:29:57Z",
         "slug":"banana-technical-committee-exchanges-with-expert-2",
         "tags":[
            1,
            2
         ]
      }
   },
   {
      "model":"blogs.tag",
      "pk":1,
      "fields":{
         "titre":"Aquaculture",
         "couleur":"#A25463"
      }
   },
   {
      "model":"blogs.tag",
      "pk":2,
      "fields":{
         "titre":"Formation",
         "couleur":"#A25463"
      }
   },
   {
      "model":"blogs.tag",
      "pk":3,
      "fields":{
         "titre":"Rencontre",
         "couleur":"#5a6a75"
      }
   },
   {
      "model":"blogs.tag",
      "pk":4,
      "fields":{
         "titre":"Fete",
         "couleur":"#e8a7ea"
      }
   },
   {
      "model":"blogs.tag",
      "pk":5,
      "fields":{
         "titre":"conférence",
         "couleur":"#A25463"
      }
   }
]