<svg xmlns="http://www.w3.org/2000/svg" width="59" height="55" viewBox="0 0 59 55">
  <g id="green_user" transform="translate(-968 -2480)">
    <rect id="Rectangle_126" data-name="Rectangle 126" width="59" height="55" rx="16" transform="translate(968 2480)" fill="rgba(0,200,83,0.6)"/>
    <path id="bxs-user" d="M7.5,6.5A4.5,4.5,0,1,0,12,2,4.505,4.505,0,0,0,7.5,6.5ZM20,21h1V20a7.009,7.009,0,0,0-7-7H10a7.008,7.008,0,0,0-7,7v1H20Z" transform="translate(984 2495)" fill="#fff"/>
  </g>
</svg>
